PCBNEW-LibModule-V1  2021-06-03 14:39:55
# encoding utf-8
Units mm
$INDEX
SOP50P490X110-11N
$EndINDEX
$MODULE SOP50P490X110-11N
Po 0 0 0 15 60b8dbab 00000000 ~~
Li SOP50P490X110-11N
Cd MSE(MSOP)_7
Kw Integrated Circuit
Sc 0
At SMD
AR 
Op 0 0 0
T0 0 0 1.27 1.27 0 0.254 N V 21 N "IC**"
T1 0 0 1.27 1.27 0 0.254 N I 21 N "SOP50P490X110-11N"
DS -3.15 -1.801 3.15 -1.801 0.05 24
DS 3.15 -1.801 3.15 1.801 0.05 24
DS 3.15 1.801 -3.15 1.801 0.05 24
DS -3.15 1.801 -3.15 -1.801 0.05 24
DS -1.5 -1.5 1.5 -1.5 0.1 24
DS 1.5 -1.5 1.5 1.5 0.1 24
DS 1.5 1.5 -1.5 1.5 0.1 24
DS -1.5 1.5 -1.5 -1.5 0.1 24
DS -1.5 -1 -1 -1.5 0.1 24
DS -2.9 -1.5 -1.5 -1.5 0.2 21
$PAD
Po -2.2 -1
Sh "1" R 0.3 1.4 0 0 900
At SMD N 00888000
Ne 0 ""
$EndPAD
$PAD
Po -2.2 -0.5
Sh "2" R 0.3 1.4 0 0 900
At SMD N 00888000
Ne 0 ""
$EndPAD
$PAD
Po -2.2 0
Sh "3" R 0.3 1.4 0 0 900
At SMD N 00888000
Ne 0 ""
$EndPAD
$PAD
Po -2.2 0.5
Sh "4" R 0.3 1.4 0 0 900
At SMD N 00888000
Ne 0 ""
$EndPAD
$PAD
Po -2.2 1
Sh "5" R 0.3 1.4 0 0 900
At SMD N 00888000
Ne 0 ""
$EndPAD
$PAD
Po 2.2 1
Sh "6" R 0.3 1.4 0 0 900
At SMD N 00888000
Ne 0 ""
$EndPAD
$PAD
Po 2.2 0.5
Sh "7" R 0.3 1.4 0 0 900
At SMD N 00888000
Ne 0 ""
$EndPAD
$PAD
Po 2.2 0
Sh "8" R 0.3 1.4 0 0 900
At SMD N 00888000
Ne 0 ""
$EndPAD
$PAD
Po 2.2 -0.5
Sh "9" R 0.3 1.4 0 0 900
At SMD N 00888000
Ne 0 ""
$EndPAD
$PAD
Po 2.2 -1
Sh "10" R 0.3 1.4 0 0 900
At SMD N 00888000
Ne 0 ""
$EndPAD
$PAD
Po 0 0
Sh "11" R 1.932 2.162 0 0 0
At SMD N 00888000
Ne 0 ""
$EndPAD
$EndMODULE SOP50P490X110-11N
$EndLIBRARY
