EESchema Schematic File Version 4
EELAYER 30 0
EELAYER END
$Descr A4 11693 8268
encoding utf-8
Sheet 2 4
Title "Status LEDs"
Date ""
Rev "01"
Comp "Golden Key"
Comment1 ""
Comment2 ""
Comment3 ""
Comment4 ""
$EndDescr
$Comp
L LTC4053EMSE-4.2#TR:LTC4053EMSE-4.2#TR IC2
U 1 1 60BB714E
P 5450 3400
F 0 "IC2" H 6150 3665 50  0000 C CNN
F 1 "LTC4053EMSE-4.2#TR" H 6150 3574 50  0000 C CNN
F 2 "LTC4053EMSE-4.2#TR:SOP50P490X110-11N" H 6700 3500 50  0001 L CNN
F 3 "http://www.linear.com/docs/3359" H 6700 3400 50  0001 L CNN
F 4 "IC BATT CHARGR LI-ION REG 10MSOP" H 6700 3300 50  0001 L CNN "Description"
F 5 "1.1" H 6700 3200 50  0001 L CNN "Height"
F 6 "Linear Technology" H 6700 3100 50  0001 L CNN "Manufacturer_Name"
F 7 "LTC4053EMSE-4.2#TR" H 6700 3000 50  0001 L CNN "Manufacturer_Part_Number"
F 8 "" H 6700 2900 50  0001 L CNN "Mouser Part Number"
F 9 "" H 6700 2800 50  0001 L CNN "Mouser Price/Stock"
F 10 "" H 6700 2700 50  0001 L CNN "Arrow Part Number"
F 11 "" H 6700 2600 50  0001 L CNN "Arrow Price/Stock"
	1    5450 3400
	1    0    0    -1  
$EndComp
Wire Wire Line
	4500 3400 4500 3050
Wire Wire Line
	4500 2750 4200 2750
Wire Wire Line
	3200 2750 3200 3000
$Comp
L Device:R R12
U 1 1 60BB9EF2
P 3900 2900
F 0 "R12" H 3970 2946 50  0000 L CNN
F 1 "4000" H 3970 2855 50  0000 L CNN
F 2 "Resistor_SMD:R_0201_0603Metric" V 3830 2900 50  0001 C CNN
F 3 "~" H 3900 2900 50  0001 C CNN
	1    3900 2900
	1    0    0    -1  
$EndComp
Connection ~ 3900 2750
Wire Wire Line
	3900 2750 3200 2750
$Comp
L Device:R R14
U 1 1 60BBA695
P 4500 2900
F 0 "R14" H 4570 2946 50  0000 L CNN
F 1 "1000" H 4570 2855 50  0000 L CNN
F 2 "Resistor_SMD:R_0201_0603Metric" V 4430 2900 50  0001 C CNN
F 3 "~" H 4500 2900 50  0001 C CNN
	1    4500 2900
	1    0    0    -1  
$EndComp
Wire Wire Line
	3900 3050 3900 3850
Wire Wire Line
	6850 3800 7200 3800
Wire Wire Line
	7200 3800 7200 4750
Wire Wire Line
	7200 4750 4650 4750
Wire Wire Line
	4650 4750 4650 3850
Wire Wire Line
	4650 3850 3900 3850
Connection ~ 3900 3850
Wire Wire Line
	6850 3600 8400 3600
Wire Wire Line
	5450 3500 4200 3500
Wire Wire Line
	4200 3500 4200 2750
Connection ~ 4200 2750
Wire Wire Line
	4200 2750 4050 2750
$Comp
L Device:R R16
U 1 1 60BBD69E
P 7000 3700
F 0 "R16" V 6793 3700 50  0000 C CNN
F 1 "1500" V 6884 3700 50  0000 C CNN
F 2 "Resistor_SMD:R_0201_0603Metric" V 6930 3700 50  0001 C CNN
F 3 "~" H 7000 3700 50  0001 C CNN
	1    7000 3700
	0    1    1    0   
$EndComp
Wire Wire Line
	6850 3500 7550 3500
Wire Wire Line
	4500 2750 6700 2750
Connection ~ 4500 2750
Wire Wire Line
	7150 2750 7150 2900
Wire Wire Line
	7150 3400 6850 3400
Wire Wire Line
	5450 3600 5150 3600
Wire Wire Line
	4050 3600 4050 3350
Connection ~ 4050 2750
Wire Wire Line
	4050 2750 3900 2750
Wire Wire Line
	5450 3800 5300 3800
Text GLabel 5300 3800 0    50   Input ~ 0
GND
Text GLabel 3900 4750 3    50   Input ~ 0
GND
$Comp
L Device:C_Small C5
U 1 1 60BC035C
P 7550 3400
F 0 "C5" H 7642 3446 50  0000 L CNN
F 1 "200m" H 7642 3355 50  0000 L CNN
F 2 "Capacitor_SMD:C_0402_1005Metric" H 7550 3400 50  0001 C CNN
F 3 "~" H 7550 3400 50  0001 C CNN
	1    7550 3400
	1    0    0    -1  
$EndComp
Connection ~ 7550 3500
Text GLabel 7550 3300 1    50   Input ~ 0
GND
$Comp
L Device:R R15
U 1 1 60BC4303
P 6850 2750
F 0 "R15" V 6643 2750 50  0000 C CNN
F 1 "1000" V 6734 2750 50  0000 C CNN
F 2 "Resistor_SMD:R_0201_0603Metric" V 6780 2750 50  0001 C CNN
F 3 "~" H 6850 2750 50  0001 C CNN
	1    6850 2750
	0    1    1    0   
$EndComp
Wire Wire Line
	7000 2750 7150 2750
$Comp
L Device:R R13
U 1 1 60BC5EE0
P 4050 3200
F 0 "R13" H 4120 3246 50  0000 L CNN
F 1 "1000" H 4120 3155 50  0000 L CNN
F 2 "Resistor_SMD:R_0201_0603Metric" V 3980 3200 50  0001 C CNN
F 3 "~" H 4050 3200 50  0001 C CNN
	1    4050 3200
	1    0    0    -1  
$EndComp
Wire Wire Line
	4050 3050 4050 2750
Text GLabel 7150 3700 2    50   Input ~ 0
GND
Text GLabel 6150 4500 3    50   Input ~ 0
GND
Text HLabel 3200 3000 3    50   Input ~ 0
Vchrg
Text HLabel 8400 3600 2    50   Input ~ 0
Vchrg
Wire Wire Line
	3900 3850 3900 4150
$Comp
L Device:Thermistor TH1
U 1 1 60BC822A
P 3900 4350
F 0 "TH1" H 4005 4396 50  0000 L CNN
F 1 "R=9.1K*EXP(3490/(V(temp)+273) - 3490/300)" H 4005 4305 50  0000 L CNN
F 2 "NTCG163JF103FT1S:THRMC1608X90N" H 3900 4350 50  0001 C CNN
F 3 "~" H 3900 4350 50  0001 C CNN
	1    3900 4350
	1    0    0    -1  
$EndComp
Wire Wire Line
	3900 4550 3900 4750
Text GLabel 5450 3700 0    50   Input ~ 0
GND
Wire Wire Line
	7550 3500 9150 3500
$Comp
L Device:LED D7
U 1 1 60C3EBA4
P 5000 3600
F 0 "D7" H 4993 3345 50  0000 C CNN
F 1 "LED" H 4993 3436 50  0000 C CNN
F 2 "LED_SMD:LED_0201_0603Metric" H 5000 3600 50  0001 C CNN
F 3 "~" H 5000 3600 50  0001 C CNN
	1    5000 3600
	-1   0    0    1   
$EndComp
$Comp
L Device:LED D8
U 1 1 60C3F9BF
P 5100 3400
F 0 "D8" H 5093 3145 50  0000 C CNN
F 1 "LED" H 5093 3236 50  0000 C CNN
F 2 "LED_SMD:LED_0201_0603Metric" H 5100 3400 50  0001 C CNN
F 3 "~" H 5100 3400 50  0001 C CNN
	1    5100 3400
	-1   0    0    1   
$EndComp
$Comp
L Device:LED D9
U 1 1 60C40348
P 7150 3050
F 0 "D9" V 7189 2932 50  0000 R CNN
F 1 "LED" V 7098 2932 50  0000 R CNN
F 2 "LED_SMD:LED_0201_0603Metric" H 7150 3050 50  0001 C CNN
F 3 "~" H 7150 3050 50  0001 C CNN
	1    7150 3050
	0    -1   -1   0   
$EndComp
Wire Wire Line
	7150 3200 7150 3400
Wire Wire Line
	4500 3400 4950 3400
Wire Wire Line
	4050 3600 4850 3600
Wire Wire Line
	5250 3400 5450 3400
$Comp
L Switch:SW_DIP_x01 SW1
U 1 1 60C63A79
P 9450 3500
F 0 "SW1" H 9450 3767 50  0000 C CNN
F 1 "SW_DIP_x01" H 9450 3676 50  0000 C CNN
F 2 "Button_Switch_SMD:SW_SPST_CK_RS282G05A3" H 9450 3500 50  0001 C CNN
F 3 "~" H 9450 3500 50  0001 C CNN
	1    9450 3500
	1    0    0    -1  
$EndComp
$Comp
L Device:Battery_Cell BT1
U 1 1 60C6448D
P 9950 3500
F 0 "BT1" V 10205 3550 50  0000 C CNN
F 1 "5" V 10114 3550 50  0000 C CNN
F 2 "Battery:BatteryHolder_Bulgin_BX0036_1xC" V 9950 3560 50  0001 C CNN
F 3 "~" V 9950 3560 50  0001 C CNN
	1    9950 3500
	0    -1   -1   0   
$EndComp
Text GLabel 10050 3500 2    50   Input ~ 0
GND
Text HLabel 9750 3500 1    50   Output ~ 0
Battery+
$EndSCHEMATC
